Allowed column names in tidied tibbles — column_glossary • modeltests
…
    A tibble with 4 variables:
method
One of "glance", "augment" or "tidy".

column
Character name of allowed output column.

description
Character description of expected column contents.

    Examples

column_glossary
#> # A tibble: 283 × 3
#>    method column          description                                           
#>    <chr>  <chr>           <chr>                                                 
#>  1 tidy   acf             Autocorrelation.                                      
#>  2 tidy   adj.p.value     P-value adjusted for multiple comparisons.            
#>  3 tidy   alternative     Alternative hypothesis (character).                   
#>  4 tidy   at.value        Value(s) used to calculate AMEs.                      
#>  5 tidy   at.variable     Variable(s) used to calculate average marginal effect…
#>  6 tidy   atmean          Marginal effects were calculated as either partial ef…
#>  7 tidy   autocorrelation Autocorrelation.                                      
#>  8 tidy   bias            Bias of the statistic.                                
#>  9 tidy   ci.width        Expected width of confidence interval.                
#> 10 tidy   class           The class under consideration.                        
#> # ℹ 273 more rows
…
